gsense2020_v121/.Xil/Vivado-8468-kickassWT/hw_ila_data_1/zip_work/waveform.vcd
$date
        2022-Feb-22 15:47:57
$end
$version
        Vivado v2017.4 (64-bit)
$end
$timescale
        1ps
$end
$scope module dut $end
$var reg 32 " BRAM_SPI_i/receiver_0/inst/data_in_to_device [31:0] $end
$var reg 1 B _TRIGGER $end
$var reg 1 C _WINDOW $end
$var reg 1 D _GAP $end
$upscope $end
$enddefinitions $end
#0
$dumpvars
b111011111111111100010000111 "
0B
1C
0D
$end
#1
b11111111111111111111100010000000 "
#2
b1111111111110001000011101111111 "
#3
b111011111111111100010000111 "
#4
b11111111111111111111100010000000 "
#5
b1111111111110001000011101111111 "
#6
b111011111111111100110000110 "
#7
b11111111111111111111100010000000 "
#8
b1111111111110001000011101111111 "
#9
b111011111111111100010000111 "
#10
b11111111111111111111100010000000 "
#11
b1111111111110001000011101111111 "
#12
b111011111111111100110000110 "
#13
b11111111111111111111100010000000 "
#14
b1111111111110001000011101111111 "
#15
b110011111111111100010000111 "
#16
b11111111111111111111100110000000 "
#17
b1111111111110001000011101111111 "
#18
b111011111111111100010000111 "
#19
b11111111111111111111100010000000 "
#20
b1111111111110001000011101111111 "
#21
b111011111111111100010000111 "
#22
b11111111111111111111100010000000 "
#23
b1111111111110001000011101111111 "
#24
b111011111111111100110000110 "
#25
b11111111111111111111100010000000 "
#26
b1111111111110001000011101111111 "
#27
b111011111111111100110000110 "
#28
b11111111111111111111100010000000 "
#29
b1111111111110001000011101111111 "
#30
b111011111111111100010000111 "
#31
b11111111111111111111100010000000 "
#32
b1111111111110001000011101111111 "
#33
b111011111111111100110000110 "
#34
b11111111111111111111100010000000 "
#35
b1111111111110001000011101111111 "
#36
b111011111111111100010000111 "
#37
b11111111111111111111100010000000 "
#38
b1111111111110001000011101111111 "
#39
b111011111111111100010000111 "
#40
b11111111111111111111100110000000 "
#41
b111111111111001100001100111 "
#42
b10000000000001110111111111111000 "
#43
b1111111111111111111111111111000 "
#44
b10000110011111111111100110000111 "
#45
b10000000000001100111111111111001 "
#46
b1111111111111111111111111111001 "
#47
b10000110011111111111100110000110 "
#48
b10000000000001100111111111111001 "
#49
b1111111111111111111111111111001 "
#50
b10000111011111111111100110000111 "
#51
b10000000000001110111111111111000 "
#52
b1111111111111111111111111111000 "
#53
b10000000011111111111100110000111 "
#54
b10000000000001000111111111111111 "
#55
b1111111111111111111111111111011 "
#56
b10000110011111111111100110000110 "
#57
b10000000000001110111111111111000 "
#58
b1111111111111111111111111111000 "
#59
b10000111011111111111100010000111 "
#60
b10000000000001110111111111111000 "
#61
b1111111111111111111111111111000 "
#62
b10000111011111111111100010000111 "
#63
b10000000000001110111111111111000 "
#64
b1111111111111111111111111111000 "
#65
b10000111011111111111100010000111 "
#66
b10000000000001110111111111111000 "
#67
b1111111111111111111111111111000 "
#68
b10000111011111111111100010000111 "
#69
b10000000000001100111111111111001 "
#70
b1111111111111111111111111111000 "
#71
b10000111011111111111100010000111 "
#72
b10011000000000000111011111111001 "
#73
b10000111011111111111111111111111 "
#74
b11111000100001110111111111111000 "
#75
b11111001100000000000011101111111 "
#76
b10000110011111111111111111111111 "
#77
b11111001100001100111111111111001 "
#78
b11111001100000000000011001111111 "
#79
b10000110011111111111111111111111 "
#80
b11111001100001100111111111111001 "
#81
b11111000100000000000011001111111 "
#82
b10000111011111111111111111111111 "
#83
b11111000100001110111111111111000 "
#84
b11111000100000000000011101111111 "
#85
b10000111011111111111111111111111 "
#86
b11111000100001110111111111111000 "
#87
b11111000100000000000011101111111 "
#88
b10000111011111111111111111111111 "
#89
b11111000100001110111111111111000 "
#90
b11111011100000000000011101111111 "
#91
b10111000011001111111111111111111 "
#92
b1111111111110001000011101111111 "
#93
b11111111111110011000000000000111 "
#94
b11111001100001100111111111111111 "
#95
b1111111111110011000011001111111 "
#96
b11111111111110011000000000000110 "
#97
b11111001100001100111111111111111 "
#98
b1111111111110011000011001111111 "
#99
b11111111111110011000000000000110 "
#100
b11111001100001100111111111111111 "
#101
b1111111111110011000011001111111 "
#102
b11111111111110001000000000000111 "
#103
b11111000100001110111111111111111 "
#104
b1111111111110001000011101111111 "
#105
b11111111111111111000100000000000 "
#106
b1111111111110001000011111111111 "
#107
b110011111111111100010000111 "
#108
b11111111111111111111100110000000 "
#109
b1111111111110011000011001111111 "
#110
b110011111111111100110000110 "
#111
b11111111111111111111100110000000 "
#112
b1111111111110011000011001111111 "
#113
b110011111111111100110000110 "
#114
b11111111111111111111100110000000 "
#115
b1111111111110011000011001111111 "
#116
b111011111111111100110000110 "
#117
b11111111111111111111100010000000 "
#118
b1111111111110001000011101111111 "
#119
b111011111111111100010000111 "
#120
b11111111111111111111100010000000 "
#121
b1111111111110001000011101111111 "
#122
b111011111111111100010000111 "
#123
b11111111111111111111100010000000 "
#124
b1111111111110001000011101111111 "
#125
b111011111111111100010000111 "
#126
b11111111111111111111100010000000 "
#127
b1111111111110001000011101111111 "
#128
b111011111111111100010000111 "
#129
b11111111111111111111100010000000 "
#130
b1111111111110001000011101111111 "
#131
b110011111111111100110000110 "
#132
b11111111111111111111100010000000 "
#133
b1111111111110001000011101111111 "
#134
b111011111111111100010000111 "
#135
b11111111111111111111100010000000 "
#136
b1111111111110001000011101111111 "
#137
b111011111111111100010000111 "
#138
b11111111111111111111100010000000 "
#139
b1111111111110001000011101111111 "
#140
b111011111111111100010000111 "
#141
b11111111111111111111100010000000 "
#142
b1111111111110001000011101111111 "
#143
b111011111111111100010000111 "
#144
b11111111111111111111100010000000 "
#145
b1111111111110001000011101111111 "
#146
b111011111111111100010000111 "
#147
b11111111111111111111100010000000 "
#148
b1111111111110001000011101111111 "
#149
b111011111111111100010000111 "
#150
b11111111111111111111100010000000 "
#151
b1111111111110001000011101111111 "
#152
b111011111111111100010000111 "
#153
b11111111111111111111100010000000 "
#154
b1111111111110001000011101111111 "
#155
b111011111111111100110000110 "
#156
b11111111111111111111100010000000 "
#157
b1111111111110001000011101111111 "
#158
b11101111111100110000110 "
#159
b11111111111111111111111110011000 "
#160
b10000111011111111111100010000111 "
#161
b10000000000000000111111111111000 "
#162
b1111111111111111111111111111111 "
#163
b10000110011111111111100110000100 "
#164
b10000000000001100111111111111001 "
#165
b1000111111111111111111111111111 "
#166
b11111000100001110111111111111000 "
#167
b11111001100000000000011101111111 "
#168
b10000110011111111111111111111111 "
#169
b11111001100001100111111111111001 "
#170
b11111001100000000000011001111111 "
#171
b10000110011111111111111111111111 "
#172
b11111001100001100111111111111001 "
#173
b11111001100000000000011001111111 "
#174
b10000110011111111111111111111111 "
#175
b11111111100010000111011111111001 "
#176
b11111111111110000000000001000111 "
#177
b11111001100001110111111111111111 "
#178
b1111111111110011000011001111111 "
#179
b11111111111110011000000000000110 "
#180
b11111001100001100111111111111111 "
#181
b1110111111111111000010001111111 "
#182
b11111111111111111011100000000000 "
#183
b1111111111110001000011101111111 "
#184
b110011111111111100110000110 "
#185
b11111111111111111111100110000000 "
#186
b1111111111110011000011001111111 "
#187
b110011111111111100110000110 "
#188
b11111111111111111111100110000000 "
#189
b1111111111110011000011001111111 "
#190
b110011111111111100110000110 "
#191
b11111111111111111111111110000000 "
#192
b1100111111111111011100001000111 "
#193
b11111111111111110001000 "
#194
b11111111111111111111101110000000 "
#195
b1111111111110011000011001111111 "
#196
b11101111111111110000110 "
#197
b11111111111111111111111110001000 "
#198
b1110111111111111000010001111111 "
#199
b10000000000001111111111110011000 "
#200
b1111111111111111111111111111000 "
#201
b10000110011111111111100110000110 "
#202
b10000000000001100111111111111001 "
#203
b1111111111111111111111111111001 "
#204
b10000110011111111111100110000110 "
#205
b10000000000001100111111111111001 "
#206
b1111111111111111111111111111001 "
#207
b10000110011111111111100110000110 "
#208
b10000000000001100111111111111001 "
#209
b1111111111111111111111111111001 "
#210
b10000110011111111111100110000110 "
#211
b10000000000001110111111111111000 "
#212
b1111111111111111111111111111000 "
#213
b10000111011111111111100010000111 "
#214
b10000000000001110111111111111000 "
#215
b1111111111111111111111111111000 "
#216
b10000111011111111111100010000111 "
#217
b10000000000001110111111111111000 "
#218
b1111111111111111111111111111000 "
#219
b10000111011111111111100010000111 "
#220
b10000000000001110111111111111000 "
#221
b1111111111111111111111111111000 "
#222
b10000111011111111111100010000111 "
#223
b10000000000001110111111111111000 "
#224
b1111111111111111111111111111000 "
#225
b10000111011111111111100010000111 "
#226
b10000000000001110111111111111000 "
#227
b1111111111111111111111111111000 "
#228
b10000111011111111111100010000111 "
#229
b10000000000001110111111111111000 "
#230
b1111111111111111111111111111000 "
#231
b10000111011111111111100010000111 "
#232
b10000000000001110111111111111000 "
#233
b1111111111111111111111111111000 "
#234
b10000111011111111111100010000111 "
#235
b10000000000001110111111111111000 "
#236
b1111111111111111111111111111000 "
#237
b10000111011111111111100010000111 "
#238
b10000000000001110111111111111000 "
#239
b1111111111111111111111111111000 "
#240
b10000111011111111111100010000111 "
#241
b10000000000001110111111111111000 "
#242
b1111111111111111111111111111000 "
#243
b10000111011111111111100010000111 "
#244
b10000000000001110111111111111000 "
#245
b1111111111111111111111111111001 "
#246
b10000111011111111111100010000111 "
#247
b10000000000001110111111111111000 "
#248
b1111111111111111111111111111000 "
#249
b10000111011111111111100010000111 "
#250
b10000000000001110111111111111000 "
#251
b1111111111111111111111111111001 "
#252
b10000111011111111111100010000111 "
#253
b10000000000001110111111111111000 "
#254
b1111111111111111111111111111000 "
#255
b10000111011111111111100010000111 "
#256
b10000000000001110111111111111000 "
#257
b1111111111111111111111111111001 "
#258
b10000111011111111111100010000111 "
#259
b10000000000001100111111111111000 "
#260
b1111111111111111111111111111001 "
#261
b10000111011111111111100010000111 "
#262
b10000000000001100111111111111000 "
#263
b1111111111111111111111111111000 "
#264
b10000110011111111111100010000111 "
#265
b10000000000001110111111111111001 "
#266
b1111111111111111111111111111000 "
#267
b10000111011111111111100010000111 "
#268
b10000000000001100111111111111000 "
#269
b1111111111111111111111111111001 "
#270
b10000111011111111111100010000111 "
#271
b10000000000001110111111111111000 "
#272
b1111111111111111111111111111000 "
#273
b10000111011111111111100010000111 "
#274
b10000000000001110111111111111000 "
#275
b1111111111111111111111111111000 "
#276
b10000111011111111111100010000111 "
#277
b10000000000001110111111111111000 "
#278
b1111111111111111111111111111000 "
#279
b10000111011111111111100010000111 "
#280
b10000000000001110111111111111000 "
#281
b1111111111111111111111111111000 "
#282
b10000111011111111111100010000111 "
#283
b10000000000001110111111111111000 "
#284
b1111111111111111111111111111000 "
#285
b10000111011111111111100010000111 "
#286
b10000000000001110111111111111000 "
#287
b1111111111111111111111111111000 "
#288
b10000111011111111111100010000111 "
#289
b10000000000001110111111111111000 "
#290
b1111111111111111111111111111000 "
#291
b10000111011111111111100010000111 "
#292
b10000000000001110111111111111000 "
#293
b1111111111111111111111111111000 "
#294
b10000111011111111111100010000111 "
#295
b10000000000001110111111111111000 "
#296
b1111111111111111111111111111000 "
#297
b10000111011111111111100010000111 "
#298
b10000000000001110111111111111000 "
#299
b1111111111111111111111111111000 "
#300
b10000111011111111111100010000111 "
#301
b10000000000001110111111111111000 "
#302
b1111111111111111111111111111000 "
#303
b10000111011111111111100010000111 "
#304
b10000000000001110111111111111000 "
#305
b1111111111111111111111111111001 "
#306
b10000111011111111111100010000111 "
#307
b10000000000001110111111111111000 "
#308
b1111111111111111111111111111000 "
#309
b10000111011111111111100010000111 "
#310
b10000000000001110111111111111000 "
#311
b1111111111111111111111111111000 "
#312
b10000111011111111111100010000111 "
#313
b10000000000001110111111111111000 "
#314
b1111111111111111111111111111000 "
#315
b10000111011111111111100010000111 "
#316
b10000000000001110111111111111000 "
#317
b1111111111111111111111111111000 "
#318
b10000111011111111111100010000111 "
#319
b10000000000001110111111111111000 "
#320
b1111111111111111111111111111000 "
#321
b10000111011111111111100010000111 "
#322
b10000000000001110111111111111000 "
#323
b1111111111111111111111111111000 "
#324
b10000111011111111111100010000111 "
#325
b10000000000001110111111111111000 "
#326
b1111111111111111111111111111000 "
#327
b10000111011111111111100010000111 "
#328
b10000000000001110111111111111000 "
#329
b1111111111111111111111111111000 "
#330
b10000111011111111111100010000111 "
#331
b10001000000000000111111111111001 "
#332
b10000111111111111111111111111111 "
#333
b11111000100001110111111111111000 "
#334
b11111000100000000000011101111111 "
#335
b10000110011111111111111111111111 "
#336
b11111001100001100111111111111001 "
#337
b11111001100000000000011001111111 "
#338
b10000111011111111111111111111111 "
#339
b11111000100001110111111111111000 "
#340
b11111000100000000000011101111111 "
#341
b10000111011111111111111111111111 "
#342
b11111000100001110111111111111000 "
#343
b11111000100000000000011101111111 "
#344
b10000111011111111111111111111111 "
#345
b11111000100001110111111111111000 "
#346
b11111000100000000000011101111111 "
#347
b10000111011111111111111111111111 "
#348
b11111000100001110111111111111000 "
#349
b11111111100010000000000001111111 "
#350
b11111000100001111111111111111111 "
#351
b1111111111110001000011101111111 "
#352
b11111111111110011000000000000111 "
#353
b11111001100001100111111111111111 "
#354
b1111111111110011000011001111111 "
#355
b11111111111110011000000000000110 "
#356
b11111001100001100111111111111111 "
#357
b1111111111110011000011001111111 "
#358
b11111111111110011000000000000110 "
#359
b11111001100001100111111111111111 "
#360
b1111111111110001000011101111111 "
#361
b11111111111110001000000000000111 "
#362
b11111000100001110111111111111111 "
#363
b1111111111110001000011101111111 "
#364
b11111111111110001000000000000111 "
#365
b11111000100001110111111111111111 "
#366
b1111111111110001000011101111111 "
#367
b11111111111110001000000000000111 "
#368
b11111111100000000111111111111111 "
#369
b1111111111110111000010001111111 "
#370
b11111111111110011000000000000110 "
#371
b11111000100001110111111111111111 "
#372
b1111111111110001000011101111111 "
#373
b11111111111110001000000000000111 "
#374
b11111000100001110111111111111111 "
#375
b1111111111110001000011101111111 "
#376
b11111111111110011000000000000110 "
#377
b11111000100001110111111111111111 "
#378
b1111111111110001000011101111111 "
#379
b11111111111110001000000000000111 "
#380
b11111000100001110111111111111111 "
#381
b1111111111110011000011001111111 "
#382
b11111111111110001000000000000111 "
#383
b11111000100001110111111111111111 "
#384
b1111111111110001000011101111111 "
#385
b11111111111110001000000000000111 "
#386
b11111000100001110111111111111111 "
#387
b1111111111110001000011101111111 "
#388
b11111111111110001000000000000111 "
#389
b11111000100001110111111111111111 "
#390
b1111111111110011000011001111111 "
#391
b11111111111110001000000000000111 "
#392
b11111000100001110111111111111111 "
#393
b1111111111110011000011001111111 "
#394
b11111111111110001000000000000111 "
#395
b11111000100001110111111111111111 "
#396
b1111111111110011000011001111111 "
#397
b11111111111110001000000000000110 "
#398
b11111000100001110111111111111111 "
#399
b1111111111110001000011101111111 "
#400
b11111111111110001000000000000111 "
#401
b11111000100001110111111111111111 "
#402
b1111111111110011000011001111111 "
#403
b11111111111110001000000000000111 "
#404
b11111000100001110111111111111111 "
#405
b1111111111110001000011101111111 "
#406
b11111111111110011000000000000110 "
#407
b11111000100001110111111111111111 "
#408
b1111111111110001000011101111111 "
#409
b11111111111110001000000000000111 "
#410
b11111000100001110111111111111111 "
#411
b1111111111110001000011101111111 "
#412
b11111111111110001000000000000111 "
#413
b11111000100001110111111111111111 "
#414
b1111111111110001000011101111111 "
#415
b11111111111110001000000000000111 "
#416
b11111000100001110111111111111111 "
#417
b1111111111110001000011101111111 "
#418
b11111111111110001000000000000111 "
#419
b11111000100001110111111111111111 "
#420
b1111111111110011000011001111111 "
#421
b11111111111110001000000000000111 "
#422
b11111000100001110111111111111111 "
#423
b1111111111110001000011101111111 "
#424
b11111111111110001000000000000111 "
#425
b11111000100001110111111111111111 "
#426
b1111111111110001000011101111111 "
#427
b11111111111110001000000000000111 "
#428
b11111000100001110111111111111111 "
#429
b1111111111110011000011001111111 "
#430
b11111111111110001000000000000111 "
#431
b11111000100001110111111111111111 "
#432
b1111111111110001000011101111111 "
#433
b11111111111110001000000000000111 "
#434
b11111000100001110111111111111111 "
#435
b1111111111110001000011101111111 "
#436
b11111111111110001000000000000111 "
#437
b11111000100001110111111111111111 "
#438
b1111111111110001000011101111111 "
#439
b11111111111110001000000000000111 "
#440
b11111000100001110111111111111111 "
#441
b1111111111110001000011101111111 "
#442
b11111111111110001000000000000111 "
#443
b11111000100001110111111111111111 "
#444
b1111111111110011000011001111111 "
#445
b11111111111110001000000000000111 "
#446
b11111000100001110111111111111111 "
#447
b1111111111110001000011101111111 "
#448
b11111111111110001000000000000111 "
#449
b11111000100001110111111111111111 "
#450
b1111111111110011000011001111111 "
#451
b11111111111110001000000000000111 "
#452
b11111000100001110111111111111111 "
#453
b1111111111110001000011101111111 "
#454
b11111111111110001000000000000111 "
#455
b11111000100001110111111111111111 "
#456
b1111111111110001000011101111111 "
#457
b11111111111110001000000000000111 "
#458
b11111000100001110111111111111111 "
#459
b1111111111110001000011101111111 "
#460
b11111111111110001000000000000111 "
#461
b11111000100001110111111111111111 "
#462
b1111111111110011000011001111111 "
#463
b11111111111110001000000000000111 "
#464
b11111000100001110111111111111111 "
#465
b1111111111110011000011001111111 "
#466
b11111111111110001000000000000111 "
#467
b11111000100001110111111111111111 "
#468
b1111111111110011000011001111111 "
#469
b11111111111110001000000000000111 "
#470
b11111000100001110111111111111111 "
#471
b1111111111110001000011101111111 "
#472
b11111111111110001000000000000111 "
#473
b11111000100001110111111111111111 "
#474
b1111111111110001000011101111111 "
#475
b11111111111110011000000000000111 "
#476
b11111000100001110111111111111111 "
#477
b1111111111110001000011101111111 "
#478
b11111111111110001000000000000111 "
#479
b11111000100001110111111111111111 "
#480
b1111111111110011000011001111111 "
#481
b11111111111110001000000000000111 "
#482
b11111000100001110111111111111111 "
#483
b1111111111110011000011001111111 "
#484
b11111111111110111000000000000111 "
#485
b11111111101110000110011111111111 "
#486
b111011111111111100010000111 "
#487
b11111111111111111111100010000000 "
#488
b1111111111110011000011001111111 "
#489
b110011111111111100110000110 "
#490
b11111111111111111111100110000000 "
#491
b1111111111110011000011001111111 "
#492
b110011111111111100110000110 "
#493
b11111111111111111111100110000000 "
#494
b1111111111110001000011101111111 "
#495
b111011111111111100010000111 "
#496
b11111111111111111111100010000000 "
#497
b1111111111110011000011101111111 "
#498
b100011111111111111110000000 "
#499
b11111111111111111111101110000000 "
#500
b1111111111110011000011001111111 "
#501
b111011111111111100010000111 "
#502
b11111111111111111111100010000000 "
#503
b1100111111111111000100001111111 "
#504
b10000000000001111111111110111000 "
#505
b1111111111111111111111111111000 "
#506
b10000110011111111111100110000110 "
#507
b10000000000001100111111111111001 "
#508
b1111111111111111111111111111001 "
#509
b10001000011101111111100110000110 "
#510
b11111000000000000100011111111111 "
#511
b10000110011111111111111111111111 "
#512
b11111001100001100111111111111001 "
1B
#513
b11111001100000000000011001111111 "
#514
b10000110011111111111111111111111 "
#515
b11111001100001100111111111111001 "
#516
b11111001100000000000011001111111 "
#517
b10000110011111111111111111111111 "
#518
b11111111100010000111011111111011 "
#519
b11111011100000000000000001111111 "
#520
b10000110011111111111111111111111 "
#521
b11111001100001100111111111111001 "
#522
b11111001100000000000011001111111 "
#523
b10000110011111111111111111111111 "
#524
b11111001100001100111111111111001 "
#525
b11111000100000000000011101111111 "
#526
b10000111011111111111111111111111 "
#527
b11111111100010000111111111111001 "
#528
b11111111111110000000000001100111 "
#529
b11111011100001110111111111111111 "
#530
b111111111111000100001110111 "
#531
b11111111111111111111100010000000 "
#532
b1000111111111111000100001111111 "
#533
b10000000000001110111111111111000 "
#534
b1000111111111111111111111111011 "
#535
b11111001100001110111111111111000 "
#536
b11111111100000000000010001111111 "
#537
b10000000011111111111111111111111 "
#538
b11111111100000000111111111111111 "
#539
b11111111100000000000000001111111 "
#540
b10000000011111111111111111111111 "
#541
b11111111100000000111111111111111 "
#542
b11111111100000000000000001111111 "
#543
b10000100011111111111111111111111 "
#544
b11111011100001000111111111111011 "
#545
b11111011100000000000010001111111 "
#546
b10000100011111111111111111111111 "
#547
b11111011100001000111111111111011 "
#548
b11111001100000000000011001111111 "
#549
b10000110011111111111111111111111 "
#550
b11111001100001100111111111111001 "
#551
b11111001100000000000011001111111 "
#552
b10000110011111111111111111111111 "
#553
b11111001100001100111111111111001 "
#554
b11111001100000000000011001111111 "
#555
b10000110011111111111111111111111 "
#556
b11111001100001100111111111111001 "
#557
b11111000100000000000011001111111 "
#558
b10000111011111111111111111111111 "
#559
b11111000100001110111111111111000 "
#560
b11111000100000000000011101111111 "
#561
b10000111011111111111111111111111 "
#562
b11111000100001110111111111111000 "
#563
b11111111100010000000000001111111 "
#564
b11111000100001110111111111111111 "
#565
b1111111111110011000011101111111 "
#566
b11111111111111111001100000000000 "
#567
b1111111111110001000011101111111 "
#568
b10000000010001111111111110001000 "
#569
b1110111111111111111111111111000 "
#570
b11111000100001111111111110001000 "
#571
b11111011100000000000011001111111 "
#572
b10000000011111111111111111111111 "
#573
b11111111100000000111111111111111 "
#574
b11111111100000000000000001111111 "
#575
b10000000011111111111111111111111 "
#576
b11111111100000000111111111111111 "
#577
b11111111100010000000000001111111 "
#578
b11111000100001110111111111111111 "
#579
b1111111111110111000010001111111 "
#580
b11111111111111111000000000000000 "
#581
b11111111100000000111111111111111 "
#582
b1111111111111111000000001111111 "
#583
b11111111111110111000000000000100 "
#584
b11111011100001000111111111111111 "
#585
b1111111111110111000010001111111 "
#586
b11111111111110111000000000000100 "
#587
b11111011100001100111111111111111 "
#588
b111111111111001100001110111 "
#589
b11111111111111111111100010000000 "
#590
b1111111111110011000011001111111 "
#591
b100011111111111101110000110 "
#592
b11111111111111111111101110000000 "
#593
b1111111111110111000010001111111 "
#594
b110011111111111101110000100 "
#595
b11111111111111111111100110000000 "
#596
b1111111111110011000011001111111 "
#597
b110011111111111100110000110 "
#598
b11111111111111111111100110000000 "
#599
b1111111111110011000011001111111 "
#600
b110011111111111100110000110 "
#601
b11111111111111111111100110000000 "
#602
b1111111111110011000011001111111 "
#603
b111011111111111100110000111 "
#604
b11111111111111111111100010000000 "
#605
b1111111111110001000011101111111 "
#606
b111011111111111100010000111 "
#607
b11111111111111111111100010000000 "
#608
b1111111111110001000011101111111 "
#609
b111011111111111100010000111 "
#610
b11111111111111111111100010000000 "
#611
b1111111111110001000011101111111 "
#612
b111011111111111100010000111 "
#613
b11111111111111111111100010000000 "
#614
b1111111111110001000011101111111 "
#615
b110011111111111100110000110 "
#616
b11111111111111111111100010000000 "
#617
b1111111111110001000011101111111 "
#618
b111011111111111100010000111 "
#619
b11111111111111111111100010000000 "
#620
b1111111111110001000011101111111 "
#621
b111011111111111100110000110 "
#622
b11111111111111111111100010000000 "
#623
b1111111111110001000011101111111 "
#624
b111011111111111100010000111 "
#625
b11111111111111111111100010000000 "
#626
b1111111111110001000011101111111 "
#627
b111011111111111100010000111 "
#628
b11111111111111111111100010000000 "
#629
b1111111111110001000011101111111 "
#630
b111011111111111100010000111 "
#631
b11111111111111111111100010000000 "
#632
b1111111111110001000011101111111 "
#633
b111011111111111100110000110 "
#634
b11111111111111111111100010000000 "
#635
b1111111111110001000011101111111 "
#636
b111011111111111100110000110 "
#637
b11111111111111111111100010000000 "
#638
b1111111111110001000011101111111 "
#639
b111011111111111100010000111 "
#640
b11111111111111111111100010000000 "
#641
b1111111111110001000011101111111 "
#642
b111011111111111100010000111 "
#643
b11111111111111111111100010000000 "
#644
b1111111111110001000011101111111 "
#645
b111011111111111100010000111 "
#646
b11111111111111111111100010000000 "
#647
b1111111111110001000011101111111 "
#648
b111011111111111100010000111 "
#649
b11111111111111111111100010000000 "
#650
b1111111111110001000011101111111 "
#651
b111011111111111100010000111 "
#652
b11111111111111111111100010000000 "
#653
b1111111111110001000011101111111 "
#654
b111011111111111100010000111 "
#655
b11111111111111111111100010000000 "
#656
b1110111111110011000011001111111 "
#657
b10001111111111110001000 "
#658
b1111111111111111111111111111000 "
#659
b10000111011111111111100010000111 "
#660
b10000000000001110111111111111000 "
#661
b1111111111111111111111111111000 "
#662
b10001000011111111111100110000111 "
#663
b11111000000000000100011111111111 "
#664
b10000111011111111111111111111111 "
#665
b11111001100001100111111111111000 "
#666
b11111001100000000000011001111111 "
#667
b10000110011111111111111111111111 "
#668
b11111001100001100111111111111001 "
#669
b11111001100000000000011001111111 "
#670
b10000110011111111111111111111111 "
#671
b11111001100001100111111111111001 "
#672
b11111001100000000000011001111111 "
#673
b10000111011111111111111111111111 "
#674
b11111000100001110111111111111000 "
#675
b11111000100000000000011101111111 "
#676
b10000111011111111111111111111111 "
#677
b11111001100001110111111111111000 "
#678
b11111111100110000000000001111111 "
#679
b11111000100001110111111111111111 "
#680
b1111111111110001000011101111111 "
#681
b11111111111110011000000000000110 "
#682
b11111001100001100111111111111111 "
#683
b1111111111110011000011001111111 "
#684
b11111111111110011000000000000110 "
#685
b11111001100001100111111111111111 "
#686
b1111111111110011000011001111111 "
#687
b11111111111110011000000000000110 "
#688
b11111001100001100111111111111111 "
#689
b1111111111110011000011001111111 "
#690
b11111111111111111000000000000000 "
#691
b11111001100001000111111111111111 "
#692
b1111111111110011000011001111111 "
#693
b11111111111110011000000000000110 "
#694
b11111000100001110111111111111111 "
#695
b1111111111110001000011101111111 "
#696
b11111111111110001000000000000111 "
#697
b11111000100001110111111111111111 "
#698
b1111111111110001000011101111111 "
#699
b11111111111110001000000000000111 "
#700
b11111000100001110111111111111111 "
#701
b1111111111110001000011101111111 "
#702
b11111111111110001000000000000111 "
#703
b11111000100001110111111111111111 "
#704
b1111111111110001000011101111111 "
#705
b11111111111110011000000000000110 "
#706
b11111000100001110111111111111111 "
#707
b1111111111110001000011101111111 "
#708
b11111111111110001000000000000111 "
#709
b11111000100001110111111111111111 "
#710
b1111111111110011000011001111111 "
#711
b11111111111110001000000000000110 "
#712
b11111000100001110111111111111111 "
#713
b1111111111110001000011101111111 "
#714
b11111111111110001000000000000111 "
#715
b11111000100001110111111111111111 "
#716
b1111111111110001000011101111111 "
#717
b11111111111110001000000000000111 "
#718
b11111000100001110111111111111111 "
#719
b1111111111110001000011101111111 "
#720
b11111111111110001000000000000111 "
#721
b11111000100001110111111111111111 "
#722
b1111111111110011000011001111111 "
#723
b11111111111110001000000000000111 "
#724
b11111000100001110111111111111111 "
#725
b1111111111110001000011101111111 "
#726
b11111111111110001000000000000111 "
#727
b11111000100001110111111111111111 "
#728
b1111111111110011000011001111111 "
#729
b11111111111111111000000000000110 "
#730
b1111111111110000100011111111111 "
#731
b111011111111111100010000111 "
#732
b11111111111111111111100010000000 "
#733
b1111111111110011000011001111111 "
#734
b110011111111111100110000110 "
#735
b11111111111111111111100110000000 "
#736
b1111111111110011000011101111111 "
#737
b111011111111111100110000111 "
#738
b11111111111111111111100010000000 "
#739
b1111111111110001000011101111111 "
#740
b111011111111111100010000111 "
#741
b11111111111111111111100010000000 "
#742
b1111111111110001000011101111111 "
#743
b111011111111111100010000111 "
#744
b11111111111111111111100010000000 "
#745
b1111111111110001000011101111111 "
#746
b111011111111111100010000111 "
#747
b11111111111111111111100010000000 "
#748
b1111111111110001000011101111111 "
#749
b111011111111111100010000111 "
#750
b11111111111111111111100010000000 "
#751
b1111111111110001000011101111111 "
#752
b111011111111111100010000111 "
#753
b11111111111111111111100010000000 "
#754
b1111111111110001000011101111111 "
#755
b111011111111111100010000111 "
#756
b11111111111111111111100010000000 "
#757
b1111111111110001000011101111111 "
#758
b111011111111111100010000111 "
#759
b11111111111111111111100010000000 "
#760
b1111111111110001000011101111111 "
#761
b111011111111111100010000111 "
#762
b11111111111111111111100010000000 "
#763
b1111111111110001000011101111111 "
#764
b111011111111111100010000111 "
#765
b11111111111111111111100010000000 "
#766
b1111111111110001000011101111111 "
#767
b111011111111111100010000111 "
#768
b11111111111111111111100010000000 "
#769
b1111111111110001000011101111111 "
#770
b111011111111111100010000111 "
#771
b11111111111111111111100010000000 "
#772
b1111111111110001000011101111111 "
#773
b111011111111111100010000111 "
#774
b11111111111111111111100010000000 "
#775
b1111111111110001000011101111111 "
#776
b111011111111111100010000111 "
#777
b11111111111111111111100010000000 "
#778
b1111111111110001000011101111111 "
#779
b110011111111111100010000111 "
#780
b11111111111111111111100010000000 "
#781
b1111111111110001000011101111111 "
#782
b111011111111111100010000111 "
#783
b11111111111111111111100010000000 "
#784
b1111111111110001000011101111111 "
#785
b110011111111111100010000111 "
#786
b11111111111111111111100110000000 "
#787
b1111111111110001000011101111111 "
#788
b111011111111111100010000111 "
#789
b11111111111111111111100010000000 "
#790
b1111111111110001000011101111111 "
#791
b111011111111111100010000111 "
#792
b11111111111111111111100010000000 "
#793
b1111111111110001000011101111111 "
#794
b111011111111111100010000111 "
#795
b11111111111111111111100010000000 "
#796
b1111111111110001000011101111111 "
#797
b111011111111111100010000111 "
#798
b11111111111111111111100010000000 "
#799
b1111111111110001000011101111111 "
#800
b111011111111111100010000111 "
#801
b11111111111111111111100010000000 "
#802
b1111111111110001000011101111111 "
#803
b111011111111111100010000111 "
#804
b11111111111111111111100010000000 "
#805
b1111111111110001000011101111111 "
#806
b111011111111111100110000110 "
#807
b11111111111111111111100010000000 "
#808
b1111111111110001000011101111111 "
#809
b111011111111111100010000111 "
#810
b11111111111111111111100010000000 "
#811
b1111111111110001000011101111111 "
#812
b111011111111111100010000111 "
#813
b11111111111111111111100010000000 "
#814
b1111111111110001000011101111111 "
#815
b111011111111111100010000111 "
#816
b11111111111111111111100110000000 "
#817
b1111111111110001000011101111111 "
#818
b11111111111100110000111 "
#819
b11111111111111111111111110011000 "
#820
b10000111011111111111100010000111 "
#821
b10011000000000000111011111111001 "
#822
b10000111011111111111111111111111 "
#823
b11111001100001110111111111111000 "
#824
b11111001100000000000011001111111 "
#825
b10000110011111111111111111111111 "
#826
b11111011100001100111111111111001 "
#827
b11111111100110000000000001110111 "
#828
b11111001100001110111111111111111 "
#829
b1000111111111111000100001111111 "
